ps05.R
…
data00 %>%
  summarise(n = n_distinct(name))

##     n
## 1 250

# 2. If you did this correctly, you saw that there are more iso-2 codes than names, and there are even more *iso3*-codes. What is going on? Can you find it out?

#(a) (5pt) Find how many names are there for each iso-2 code. Are there any iso-2 codes that correspond to more than one name? What are these countries?
data00 %>%
  group_by(iso2) %>%
  summarise(count_iso2 = n_distinct(name))

## # A tibble: 249 x 2
##    iso2  count_iso2
##    <chr>      <int>
##  1 ""             2
##  2 "AD"           1
##  3 "AE"           1
##  4 "AF"           1
##  5 "AG"           1
##  6 "AI"           1
##  7 "AL"           1
##  8 "AM"           1
##  9 "AO"           1
## 10 "AQ"           1
## #  with 239 more rows

## there are iso2 codes that correspond to more one name.

#(b) (5pt) Now repeat the same for name and iso3-code. Are there country names that have more than one iso3-code? What are these countries? Hint: two of these entitites are *CHANISL* and *NLD CURACAO*.
data00 %>%
  group_by(name) %>%
  summarise(count_iso3 = n_distinct(iso3)) %>%
  arrange(desc(count_iso3))

## # A tibble: 250 x 2
##    name             count_iso3
##    <chr>                 <int>
##  1 ""                        4
##  2 "Afghanistan"             1
##  3 "land Islands"           1
##  4 "Albania"                 1
##  5 "Algeria"                 1
##  6 "American Samoa"          1
##  7 "Andorra"                 1
##  8 "Angola"                  1
##  9 "Anguilla"                1
## 10 "Antarctica"              1
## #  with 240 more rows
…
##    min  max
## 1 1960 2019

# 3 CO2 emissions (30pt)
#Next, lets analyze CO2 emissions.

# 1. (2pt) How many missing co2 emissions are there for each year? Analyze both missing *CO2* and *co2_PC*. Which years have most missing data? 
# data00 %>%
data00 %>%
  group_by(time) %>%
  summarise(missing_co2 = sum(is.na(co2))) %>%
  arrange(desc(missing_co2))

## # A tibble: 61 x 2
##     time missing_co2
##    <int>       <int>
##  1  2017         217
##  2  2018         217
##  3  2019         217
##  4  1960          60
##  5  1961          60
##  6  1962          58
##  7  1963          57
##  8  1964          51
##  9  1965          51
## 10  1966          51
## #  with 51 more rows

data00 %>%
  group_by(time) %>%
  summarise(missing_co2_pc = sum(is.na(co2_PC))) %>%
  arrange(desc(missing_co2_pc))

## # A tibble: 61 x 2
##     time missing_co2_pc
##    <int>          <int>
##  1  2017            217
##  2  2018            217
##  3  2019            217
##  4  1960             60
##  5  1961             60
##  6  1962             58
##  7  1963             57
##  8  1964             51
##  9  1965             51
## 10  1966             51
## #  with 51 more rows
…
